<?xml version="1.0" encoding="UTF-8" standalone="no"?>
<!-- Created with Inkscape (http://www.inkscape.org/) -->

<svg
   width="210mm"
   height="297mm"
   viewBox="0 0 210 297"
   version="1.1"
   id="svg264"
   inkscape:version="1.3.2 (091e20ef0f, 2023-11-25, custom)"
   sodipodi:docname="double.svg"
   xmlns:inkscape="http://www.inkscape.org/namespaces/inkscape"
   xmlns:sodipodi="http://sodipodi.sourceforge.net/DTD/sodipodi-0.dtd"
   xmlns="http://www.w3.org/2000/svg"
   xmlns:svg="http://www.w3.org/2000/svg">
  <sodipodi:namedview
     id="namedview266"
     pagecolor="#ffffff"
     bordercolor="#000000"
     borderopacity="0.25"
     inkscape:showpageshadow="2"
     inkscape:pageopacity="0.0"
     inkscape:pagecheckerboard="0"
     inkscape:deskcolor="#d1d1d1"
     inkscape:document-units="mm"
     showgrid="false"
     inkscape:zoom="0.7178772"
     inkscape:cx="171.3385"
     inkscape:cy="275.81319"
     inkscape:window-width="1918"
     inkscape:window-height="1058"
     inkscape:window-x="0"
     inkscape:window-y="20"
     inkscape:window-maximized="1"
     inkscape:current-layer="layer1" />
  <defs
     id="defs261" />
  <g
     inkscape:label="Layer 1"
     inkscape:groupmode="layer"
     id="layer1">
    <g
       id="g347">
      <circle
         style="fill:none;stroke:#000000;stroke-width:0.899999"
         id="path1221-7"
         cx="63.18605"
         cy="156.0269"
         r="4.7729273" />
      <circle
         style="font-variation-settings:normal;vector-effect:none;fill:none;fill-opacity:1;fill-rule:evenodd;stroke:#000000;stroke-width:0.899999;stroke-linecap:butt;stroke-linejoin:miter;stroke-miterlimit:4;stroke-dasharray:none;stroke-dashoffset:0;stroke-opacity:1;-inkscape-stroke:none;stop-color:#000000"
         id="path1221-35"
         cx="73.904572"
         cy="170.27898"
         r="4.7729273" />
    </g>
    <g
       id="g2"
       transform="translate(10.777379,-120.26136)">
      <circle
         style="fill:none;stroke:#000000;stroke-width:0.899999"
         id="circle1"
         cx="63.18605"
         cy="156.0269"
         r="4.7729273" />
      <circle
         style="font-variation-settings:normal;vector-effect:none;fill:none;fill-opacity:1;fill-rule:evenodd;stroke:#000000;stroke-width:0.899999;stroke-linecap:butt;stroke-linejoin:miter;stroke-miterlimit:4;stroke-dasharray:none;stroke-dashoffset:0;stroke-opacity:1;-inkscape-stroke:none;stop-color:#000000"
         id="circle2"
         cx="73.904572"
         cy="170.27898"
         r="4.7729273" />
    </g>
    <g
       id="g4"
       transform="translate(118.40663,25.737298)">
      <circle
         style="fill:none;stroke:#000000;stroke-width:0.899999"
         id="circle3"
         cx="63.18605"
         cy="156.0269"
         r="4.7729273" />
      <circle
         style="font-variation-settings:normal;vector-effect:none;fill:none;fill-opacity:1;fill-rule:evenodd;stroke:#000000;stroke-width:0.899999;stroke-linecap:butt;stroke-linejoin:miter;stroke-miterlimit:4;stroke-dasharray:none;stroke-dashoffset:0;stroke-opacity:1;-inkscape-stroke:none;stop-color:#000000"
         id="circle4"
         cx="73.904572"
         cy="170.27898"
         r="4.7729273" />
    </g>
    <path
       style="fill:none;stroke:#000000;stroke-width:1"
       d="M 70.855448,39.140984 66.649475,152.7701 176.79836,180.34037"
       id="path6" />
    <path
       style="fill:none;stroke:#000000;stroke-width:1"
       d="M 81.882413,53.861861 77.908009,166.82169 187.23391,194.27091"
       id="path7" />
    <g
       id="g3"
       transform="translate(-0.03464272,-0.11679963)">
      <g
         id="g347-2">
        <circle
           style="fill:none;stroke:#000000;stroke-width:0.899999"
           id="path1221-7-9"
           cx="63.18605"
           cy="156.0269"
           r="4.7729273" />
        <circle
           style="font-variation-settings:normal;vector-effect:none;fill:none;fill-opacity:1;fill-rule:evenodd;stroke:#000000;stroke-width:0.899999;stroke-linecap:butt;stroke-linejoin:miter;stroke-miterlimit:4;stroke-dasharray:none;stroke-dashoffset:0;stroke-opacity:1;-inkscape-stroke:none;stop-color:#000000"
           id="path1221-35-1"
           cx="73.904572"
           cy="170.27898"
           r="4.7729273" />
      </g>
      <circle
         style="fill:none;stroke:#000000;stroke-width:1;stroke-dasharray:none"
         id="path343"
         cx="92.770493"
         cy="144.05011"
         r="37.428295" />
    </g>
  </g>
</svg>
