<?xml version="1.0" encoding="UTF-8" standalone="no"?>
<!-- Created with Inkscape (http://www.inkscape.org/) -->

<svg
   width="210mm"
   height="297mm"
   viewBox="0 0 210 297"
   version="1.1"
   id="svg264"
   inkscape:version="1.3.2 (091e20ef0f, 2023-11-25, custom)"
   sodipodi:docname="ice.svg"
   xmlns:inkscape="http://www.inkscape.org/namespaces/inkscape"
   xmlns:sodipodi="http://sodipodi.sourceforge.net/DTD/sodipodi-0.dtd"
   xmlns="http://www.w3.org/2000/svg"
   xmlns:svg="http://www.w3.org/2000/svg">
  <sodipodi:namedview
     id="namedview266"
     pagecolor="#ffffff"
     bordercolor="#000000"
     borderopacity="0.25"
     inkscape:showpageshadow="2"
     inkscape:pageopacity="0.0"
     inkscape:pagecheckerboard="0"
     inkscape:deskcolor="#d1d1d1"
     inkscape:document-units="mm"
     showgrid="false"
     inkscape:zoom="1.6407095"
     inkscape:cx="417.50231"
     inkscape:cy="456.50982"
     inkscape:window-width="1918"
     inkscape:window-height="1058"
     inkscape:window-x="0"
     inkscape:window-y="20"
     inkscape:window-maximized="1"
     inkscape:current-layer="g3" />
  <defs
     id="defs261" />
  <g
     inkscape:label="Layer 1"
     inkscape:groupmode="layer"
     id="layer1">
    <g
       id="g3">
      <path
         id="path5"
         style="fill:none;stroke:#000000;stroke-width:0.910102"
         d="M 65.545316 112.61944 A 26.851875 26.851875 0 0 1 92.378815 86.760818 A 26.851875 26.851875 0 0 1 119.19281 112.18696 " />
      <g
         id="g7">
        <path
           id="path343"
           style="fill:none;stroke:#000000;stroke-width:1;stroke-dasharray:none"
           d="M 71.042399 113.57442 A 37.428295 37.428295 0 0 1 92.770493 106.62181 A 37.428295 37.428295 0 0 1 114.99134 113.93182 " />
        <path
           id="path1"
           style="fill:none;stroke:#000000;stroke-width:1;stroke-dasharray:none"
           d="M 109.6335 177.46442 A 37.428295 37.428295 0 0 1 92.770493 181.4784 A 37.428295 37.428295 0 0 1 55.342197 144.05011 A 37.428295 37.428295 0 0 1 64.033349 120.06982 " />
        <path
           id="path3"
           style="fill:none;stroke:#000000;stroke-width:1;stroke-dasharray:none"
           d="M 121.85952 120.49791 A 37.428295 37.428295 0 0 1 130.19879 144.05011 L 130.19879 144.05011 A 37.428295 37.428295 0 0 1 126.77133 159.69684 " />
      </g>
      <g
         id="g347">
        <circle
           style="fill:none;stroke:#000000;stroke-width:0.899999"
           id="path1221-7"
           cx="63.18605"
           cy="156.0269"
           r="4.7729273" />
        <circle
           style="font-variation-settings:normal;vector-effect:none;fill:none;fill-opacity:1;fill-rule:evenodd;stroke:#000000;stroke-width:0.899999;stroke-linecap:butt;stroke-linejoin:miter;stroke-miterlimit:4;stroke-dasharray:none;stroke-dashoffset:0;stroke-opacity:1;-inkscape-stroke:none;stop-color:#000000"
           id="path1221-35"
           cx="73.904572"
           cy="170.27898"
           r="4.7729273" />
        <circle
           style="font-variation-settings:normal;vector-effect:none;fill:none;fill-opacity:1;fill-rule:evenodd;stroke:#000000;stroke-width:0.899999;stroke-linecap:butt;stroke-linejoin:miter;stroke-miterlimit:4;stroke-dasharray:none;stroke-dashoffset:0;stroke-opacity:1;-inkscape-stroke:none;stop-color:#000000"
           id="path1221-35-5"
           cx="67.636902"
           cy="116.93304"
           r="4.7729273" />
        <circle
           style="font-variation-settings:normal;vector-effect:none;fill:none;fill-opacity:1;fill-rule:evenodd;stroke:#000000;stroke-width:0.899999;stroke-linecap:butt;stroke-linejoin:miter;stroke-miterlimit:4;stroke-dasharray:none;stroke-dashoffset:0;stroke-opacity:1;-inkscape-stroke:none;stop-color:#000000"
           id="path1221-35-3"
           cx="118.69138"
           cy="116.93304"
           r="4.7729273" />
      </g>
      <circle
         style="fill:none;stroke:#000000;stroke-width:1"
         id="path2"
         cx="123.69913"
         cy="173.91826"
         r="14.555187" />
      <path
         sodipodi:type="star"
         style="fill:none;stroke:#000000;stroke-width:1"
         id="path7"
         inkscape:flatsided="false"
         sodipodi:sides="3"
         sodipodi:cx="114.5006"
         sodipodi:cy="162.08919"
         sodipodi:r1="15.623379"
         sodipodi:r2="7.8116894"
         sodipodi:arg1="1.0001684"
         sodipodi:arg2="2.0473659"
         inkscape:rounded="0"
         inkscape:randomized="0"
         d="m 122.93974,175.23723 -12.02262,-6.20678 -12.022622,-6.20678 11.386542,-7.3085 11.38653,-7.30851 0.63608,13.51529 z"
         inkscape:transform-center-x="0.012473248"
         inkscape:transform-center-y="3.5061281"
         transform="matrix(0.75862743,0.485032,-0.485032,0.75862743,115.41596,-4.9795762)" />
      <rect
         style="fill:none;stroke:#000000;stroke-width:1"
         id="rect7"
         width="40.199291"
         height="40.199291"
         x="72.670845"
         y="123.95046" />
      <rect
         style="fill:none;stroke:#000000;stroke-width:1"
         id="rect8"
         width="14.368443"
         height="14.368443"
         x="85.184677"
         y="90.500801" />
    </g>
  </g>
</svg>
