<?xml version="1.0" encoding="UTF-8" standalone="no"?>
<!-- Created with Inkscape (http://www.inkscape.org/) -->

<svg
   width="210mm"
   height="297mm"
   viewBox="0 0 210 297"
   version="1.1"
   id="svg5"
   inkscape:version="1.2.2 (b0a8486541, 2022-12-01)"
   sodipodi:docname="spell.svg"
   inkscape:export-filename="pock.png"
   inkscape:export-xdpi="96"
   inkscape:export-ydpi="96"
   xmlns:inkscape="http://www.inkscape.org/namespaces/inkscape"
   xmlns:sodipodi="http://sodipodi.sourceforge.net/DTD/sodipodi-0.dtd"
   xmlns="http://www.w3.org/2000/svg"
   xmlns:svg="http://www.w3.org/2000/svg">
  <sodipodi:namedview
     id="namedview7"
     pagecolor="#ffffff"
     bordercolor="#666666"
     borderopacity="1.0"
     inkscape:showpageshadow="2"
     inkscape:pageopacity="0.0"
     inkscape:pagecheckerboard="0"
     inkscape:deskcolor="#d1d1d1"
     inkscape:document-units="mm"
     showgrid="false"
     inkscape:zoom="1.2938725"
     inkscape:cx="143.36807"
     inkscape:cy="597.43135"
     inkscape:window-width="2558"
     inkscape:window-height="1421"
     inkscape:window-x="0"
     inkscape:window-y="17"
     inkscape:window-maximized="1"
     inkscape:current-layer="layer1" />
  <defs
     id="defs2" />
  <g
     inkscape:label="Layer 1"
     inkscape:groupmode="layer"
     id="layer1">
    <path
       id="path113"
       style="fill:none;stroke:#000000;stroke-width:0.899999;fill-rule:evenodd"
       d="M 162.53051 78.050214 A 71.052299 71.052299 0 0 1 167.62266 84.719097 " />
    <path
       id="path978"
       style="fill:none;stroke:#000000;stroke-width:0.899999;fill-rule:evenodd"
       d="M 61.242762 71.553001 A 71.052299 71.052299 0 0 1 108.70319 53.377319 A 71.052299 71.052299 0 0 1 155.83447 71.259403 " />
    <path
       id="path1030"
       style="fill:none;stroke:#000000;stroke-width:0.899999;fill-rule:evenodd"
       d="M 49.58489 85.015718 A 71.052299 71.052299 0 0 1 54.719342 78.232507 " />
    <path
       id="path1097"
       style="fill:none;stroke:#000000;stroke-width:0.899999;fill-rule:evenodd"
       d="M 55.783448 171.84196 A 71.052299 71.052299 0 0 1 37.650894 124.42962 A 71.052299 71.052299 0 0 1 44.868639 93.227392 " />
    <path
       id="path1151"
       style="fill:none;stroke:#000000;stroke-width:0.899999;fill-rule:evenodd"
       d="M 104.56809 195.36149 A 71.052299 71.052299 0 0 1 62.598781 178.49266 " />
    <path
       id="path1205"
       style="fill:none;stroke:#000000;stroke-width:0.899999;fill-rule:evenodd"
       d="M 155.32344 178.04847 A 71.052299 71.052299 0 0 1 113.98528 195.28531 " />
    <path
       id="path1259"
       style="fill:none;stroke:#000000;stroke-width:0.899999;fill-rule:evenodd"
       d="M 172.40257 92.952342 A 71.052299 71.052299 0 0 1 179.75549 124.42962 L 179.75549 124.42962 A 71.052299 71.052299 0 0 1 162.06271 171.34648 " />
    <path
       id="path279"
       style="fill:none;stroke:#000000;stroke-width:0.878069"
       inkscape:transform-center-x="1.122609"
       inkscape:transform-center-y="16.715272"
       d="M 37.529823 143.69491 L -17.419769 48.240785 "
       transform="matrix(-0.51046921,0.88881124,-0.88881056,-0.51048877,199.17856,128.69445)" />
    <path
       id="path1124"
       style="fill:none;stroke:#000000;stroke-width:0.878069"
       inkscape:transform-center-x="1.122609"
       inkscape:transform-center-y="16.715272"
       d="M 97.014905 47.770159 L 41.87194 143.00217 "
       transform="matrix(-0.51046921,0.88881124,-0.88881056,-0.51048877,199.17856,128.69445)" />
    <path
       id="path1232"
       style="fill:none;stroke:#000000;stroke-width:0.878069"
       inkscape:transform-center-x="1.122609"
       inkscape:transform-center-y="16.715272"
       d="M -14.82876 44.253713 L 95.010768 44.392656 "
       transform="matrix(-0.51046921,0.88881124,-0.88881056,-0.51048877,199.17856,128.69445)" />
    <path
       id="path380"
       style="fill:none;stroke:#000000;stroke-width:1.03579"
       d="M 1.5398674 21.492462 L 106.39269 21.070948 "
       transform="matrix(0.868906,0,0,0.868906,62.047302,56.753547)" />
    <path
       id="path1070"
       style="fill:none;stroke:#000000;stroke-width:1.03579"
       d="M -3.5068463 130.88492 L -3.9240342 27.108558 "
       transform="matrix(0.868906,0,0,0.868906,62.047302,56.753547)" />
    <path
       id="path1178"
       style="fill:none;stroke:#000000;stroke-width:1.03579"
       d="M 105.97144 135.97886 L 2.1344168 136.3963 "
       transform="matrix(0.868906,0,0,0.868906,62.047302,56.753547)" />
    <path
       id="path1286"
       style="fill:none;stroke:#000000;stroke-width:1.03579"
       d="M 110.97758 25.960885 L 111.39785 130.5045 "
       transform="matrix(0.868906,0,0,0.868906,62.047302,56.753547)" />
    <circle
       style="fill:none;stroke:#000000;stroke-width:0.899999"
       id="path1221"
       cx="58.616997"
       cy="75.537712"
       r="4.7729273" />
    <circle
       style="fill:none;stroke:#000000;stroke-width:0.899999"
       id="path1221-3"
       cx="47.578533"
       cy="89.342018"
       r="4.7729273" />
    <circle
       style="fill:none;stroke:#000000;stroke-width:0.899999"
       id="path1221-6"
       cx="109.27164"
       cy="194.83379"
       r="4.7729273" />
    <circle
       style="fill:none;stroke:#000000;stroke-width:0.899999"
       id="path1221-7"
       cx="159.20883"
       cy="74.63446"
       r="4.7729273" />
    <circle
       style="fill:none;stroke:#000000;stroke-width:0.899999"
       id="path1221-5"
       cx="158.89825"
       cy="174.91565"
       r="4.7729273" />
    <circle
       style="fill:none;stroke:#000000;stroke-width:0.899999"
       id="path1221-5-6"
       cx="59.133789"
       cy="175.23541"
       r="4.7729273" />
    <circle
       style="fill:none;stroke:#000000;stroke-width:0.899999;fill-rule:evenodd;fill-opacity:1;stroke-opacity:1;font-variation-settings:normal;opacity:1;vector-effect:none;stroke-linecap:butt;stroke-linejoin:miter;stroke-miterlimit:4;stroke-dasharray:none;stroke-dashoffset:0;-inkscape-stroke:none;stop-color:#000000;stop-opacity:1"
       id="path1221-35"
       cx="169.92735"
       cy="88.886543"
       r="4.7729273" />
  </g>
</svg>
