<?xml version="1.0" encoding="UTF-8" standalone="no"?>
<!-- Created with Inkscape (http://www.inkscape.org/) -->

<svg
   width="210mm"
   height="297mm"
   viewBox="0 0 210 297"
   version="1.1"
   id="svg264"
   inkscape:version="1.3.2 (091e20ef0f, 2023-11-25, custom)"
   sodipodi:docname="teleport.svg"
   xmlns:inkscape="http://www.inkscape.org/namespaces/inkscape"
   xmlns:sodipodi="http://sodipodi.sourceforge.net/DTD/sodipodi-0.dtd"
   xmlns="http://www.w3.org/2000/svg"
   xmlns:svg="http://www.w3.org/2000/svg">
  <sodipodi:namedview
     id="namedview266"
     pagecolor="#ffffff"
     bordercolor="#000000"
     borderopacity="0.25"
     inkscape:showpageshadow="2"
     inkscape:pageopacity="0.0"
     inkscape:pagecheckerboard="0"
     inkscape:deskcolor="#d1d1d1"
     inkscape:document-units="mm"
     showgrid="false"
     inkscape:zoom="1.6407095"
     inkscape:cx="417.50231"
     inkscape:cy="456.50982"
     inkscape:window-width="1918"
     inkscape:window-height="1058"
     inkscape:window-x="0"
     inkscape:window-y="20"
     inkscape:window-maximized="1"
     inkscape:current-layer="g3" />
  <defs
     id="defs261" />
  <g
     inkscape:label="Layer 1"
     inkscape:groupmode="layer"
     id="layer1">
    <g
       id="g3">
      <path
         id="path8"
         style="fill:none;stroke:#000000;stroke-width:1"
         d="M 30.258178 81.228169 L 30.258177 61.396548 L 61.477797 43.371891 L 92.697418 61.396546 L 92.697419 81.457867 "
         transform="matrix(0.90215331,0,0,0.90215331,37.862727,39.580558)" />
      <path
         id="path11"
         style="fill:none;stroke:#000000;stroke-width:0.902153"
         d="M 65.180131 112.85056 L 65.180131 107.66129 L 93.34501 91.400282 L 121.5099 107.66128 L 121.5099 113.08207 " />
      <g
         id="g7">
        <path
           id="path343"
           style="fill:none;stroke:#000000;stroke-width:1;stroke-dasharray:none"
           d="M 71.042399 113.57442 A 37.428295 37.428295 0 0 1 92.770493 106.62181 A 37.428295 37.428295 0 0 1 114.99134 113.93182 " />
        <path
           id="path1"
           style="fill:none;stroke:#000000;stroke-width:1;stroke-dasharray:none"
           d="M 109.6335 177.46442 A 37.428295 37.428295 0 0 1 92.770493 181.4784 A 37.428295 37.428295 0 0 1 55.342197 144.05011 A 37.428295 37.428295 0 0 1 64.033349 120.06982 " />
        <path
           id="path3"
           style="fill:none;stroke:#000000;stroke-width:1;stroke-dasharray:none"
           d="M 121.85952 120.49791 A 37.428295 37.428295 0 0 1 130.19879 144.05011 L 130.19879 144.05011 A 37.428295 37.428295 0 0 1 126.77133 159.69684 " />
      </g>
      <g
         id="g347"
         style="display:inline">
        <circle
           style="fill:none;stroke:#000000;stroke-width:0.899999"
           id="path1221-7"
           cx="62.756744"
           cy="155.89874"
           r="4.7729273" />
        <circle
           style="font-variation-settings:normal;vector-effect:none;fill:none;fill-opacity:1;fill-rule:evenodd;stroke:#000000;stroke-width:0.899999;stroke-linecap:butt;stroke-linejoin:miter;stroke-miterlimit:4;stroke-dasharray:none;stroke-dashoffset:0;stroke-opacity:1;-inkscape-stroke:none;stop-color:#000000"
           id="path1221-35"
           cx="73.904572"
           cy="170.27898"
           r="4.7729273" />
        <circle
           style="font-variation-settings:normal;vector-effect:none;fill:none;fill-opacity:1;fill-rule:evenodd;stroke:#000000;stroke-width:0.899999;stroke-linecap:butt;stroke-linejoin:miter;stroke-miterlimit:4;stroke-dasharray:none;stroke-dashoffset:0;stroke-opacity:1;-inkscape-stroke:none;stop-color:#000000"
           id="path1221-35-5"
           cx="67.636902"
           cy="116.93304"
           r="4.7729273" />
        <circle
           style="font-variation-settings:normal;vector-effect:none;fill:none;fill-opacity:1;fill-rule:evenodd;stroke:#000000;stroke-width:0.899999;stroke-linecap:butt;stroke-linejoin:miter;stroke-miterlimit:4;stroke-dasharray:none;stroke-dashoffset:0;stroke-opacity:1;-inkscape-stroke:none;stop-color:#000000"
           id="path1221-35-3"
           cx="118.69138"
           cy="116.93304"
           r="4.7729273" />
      </g>
      <path
         id="path12"
         style="display:inline;fill:none;stroke:#000000;stroke-width:1"
         d="m 108.8589,166.31332 a 27.544598,27.428148 0 0 1 -16.088405,5.16493 27.544598,27.428148 0 0 1 -27.544597,-27.42814 27.544598,27.428148 0 0 1 27.544597,-27.42815 27.544598,27.428148 0 0 1 27.544595,27.42815 v 0 a 27.544598,27.428148 0 0 1 -4.65658,15.25983" />
      <rect
         style="fill:none;stroke:#000000;stroke-width:1"
         id="rect12"
         width="21.519123"
         height="21.575029"
         x="109.25465"
         y="159.37451" />
      <circle
         style="fill:none;stroke:#000000;stroke-width:1"
         id="path13"
         cx="120.01347"
         cy="170.21689"
         r="10.685471" />
    </g>
  </g>
</svg>
